{
  "rules": {
    "users": {
      "$userId": {
        ".read": true,
        ".write": "data.val() == null",
        ".validate": "newData.hasChildren(['id', 'name']) && newData.child('id').isString() && newData.child('id').val().length < 50 && newData.child('name').isString() && newData.child('name').val().length < 100"
      }
    },
    "notes": {
      ".read": true,
      "$noteId": {
        ".read": true,
        ".write": true,
        "id": {
          ".read": true,
          ".write": "data.val() == null || data.parent().child('uid').val() == auth.uid",
          ".validate": "newData.isString() && newData.val().length < 50"
        },
        "title": {
          ".read": true,
          ".write": "data.val() == null || data.parent().child('uid').val() == auth.uid",
          ".validate": "newData.isString() && newData.val().length < 100"
        },
        "text": {
          ".read": true,
          ".write": "data.val() == null || data.parent().child('uid').val() == auth.uid",
          ".validate": "newData.isString() && newData.val().length < 1000"
        },
        "top": {
          ".read": true,
          ".write": "data.val() == null || data.parent().child('uid').val() == auth.uid",
          ".validate": "newData.isNumber()"
        },
        "left": {
          ".read": true,
          ".write": "data.val() == null || data.parent().child('uid').val() == auth.uid",
          ".validate": "newData.isNumber()"
        },
        "color": {
          ".read": true,
          ".write": "data.val() == null || data.parent().child('uid').val() == auth.uid",
          ".validate": "newData.isString() && newData.val().length < 100"
        },
        "uid": {
          ".read": true,
          ".write": "data.val() == null || data.parent().child('uid').val() == auth.uid",
          ".validate": "newData.isString()"
        },
        "$other": { ".validate": false }
      }
    }
  }
}
